module gitlab.com/rsa-perception-sensor/trisect-docs

go 1.19

require (
	github.com/FortAwesome/Font-Awesome v0.0.0-20240402185447-c0f460dca7f7 // indirect
	github.com/google/docsy v0.10.0 // indirect
	github.com/google/docsy/dependencies v0.7.2 // indirect
	github.com/twbs/bootstrap v5.3.3+incompatible // indirect
)
